-- Merging decision tree log ---
manifest
ADDED from C:\Users\Admin\Desktop\app-lock\patternlockview-reactive1\src\main\AndroidManifest.xml:1:1-55
INJECTED from C:\Users\Admin\Desktop\app-lock\patternlockview-reactive1\src\main\AndroidManifest.xml:1:1-55
INJECTED from C:\Users\Admin\Desktop\app-lock\patternlockview-reactive1\src\main\AndroidManifest.xml:1:1-55
	package
		ADDED from C:\Users\Admin\Desktop\app-lock\patternlockview-reactive1\src\main\AndroidManifest.xml:1:11-53
		INJECTED from C:\Users\Admin\Desktop\app-lock\patternlockview-reactive1\src\main\AndroidManifest.xml
		INJECTED from C:\Users\Admin\Desktop\app-lock\patternlockview-reactive1\src\main\AndroidManifest.xml
	xmlns:android
		ADDED from C:\Users\Admin\Desktop\app-lock\patternlockview-reactive1\src\main\AndroidManifest.xml:1:1-55
uses-sdk
INJECTED from C:\Users\Admin\Desktop\app-lock\patternlockview-reactive1\src\main\AndroidManifest.xml reason: use-sdk injection requested
INJECTED from C:\Users\Admin\Desktop\app-lock\patternlockview-reactive1\src\main\AndroidManifest.xml
INJECTED from C:\Users\Admin\Desktop\app-lock\patternlockview-reactive1\src\main\AndroidManifest.xml
INJECTED from C:\Users\Admin\Desktop\app-lock\patternlockview-reactive1\src\main\AndroidManifest.xml
INJECTED from C:\Users\Admin\Desktop\app-lock\patternlockview-reactive1\src\main\AndroidManifest.xml
	android:targetSdkVersion
		INJECTED from C:\Users\Admin\Desktop\app-lock\patternlockview-reactive1\src\main\AndroidManifest.xml
		ADDED from C:\Users\Admin\Desktop\app-lock\patternlockview-reactive1\src\main\AndroidManifest.xml
		INJECTED from C:\Users\Admin\Desktop\app-lock\patternlockview-reactive1\src\main\AndroidManifest.xml
	android:minSdkVersion
		INJECTED from C:\Users\Admin\Desktop\app-lock\patternlockview-reactive1\src\main\AndroidManifest.xml
		ADDED from C:\Users\Admin\Desktop\app-lock\patternlockview-reactive1\src\main\AndroidManifest.xml
		INJECTED from C:\Users\Admin\Desktop\app-lock\patternlockview-reactive1\src\main\AndroidManifest.xml
